[
{
    "mName":"rachit arayal",
    "mId":1,
    "mType":"Gitarist",
    "mAge":"22",
    "mSex":"male",
    "mLocation":"location",
    "mFollowers":"33",
    "mRating":"3.5",
    "mRecommendations":["1","4"],
    "mFollowings":["id1","id2","id65"]

}
]